<?xml version="1.0" encoding="UTF-8"?>
<kml creator="plotaroute.com http://www.plotaroute.com" xmlns="http://earth.google.com/kml/2.2">
    <Document>
        <name>Unnamed Ro</name>
        <open>1</open>
        <Style id="StartIconStyle">
            <IconStyle id="StartIcon">
                <Icon><href>https://www.plotaroute.com/images/icons/starticon.png</href></Icon>
            </IconStyle>
            <LabelStyle><scale>0.7</scale></LabelStyle>
        </Style>
        <Style id="FinishIconStyle">
            <IconStyle id="FinishIcon">
                <Icon><href>https://www.plotaroute.com/images/icons/finishicon.png</href></Icon>
            </IconStyle>
            <LabelStyle><scale>0.7</scale></LabelStyle>
        </Style>
        <Style id="RoutePath">
            <LineStyle>
                <color>CC14DCF3</color>
                <width>4</width>
            </LineStyle>
        </Style>
        <LookAt>
            <longitude>15.985107</longitude>
            <latitude>45.756026</latitude>
            <range>400</range>
            <tilt>60</tilt>
            <altitudeMode>clampToGround</altitudeMode>
        </LookAt>
        <Folder id="Routenull">
            <name><![CDATA[Unnamed Route]]> </name><description><![CDATA[]]></description><Placemark>
            <name><![CDATA[Fly-Over Tour]]></name>
            <description><![CDATA[]]></description>
            <styleUrl>#RoutePath</styleUrl>
            <LineString id="Route">
                <extrude>0</extrude>
                <tessellate>1</tessellate>
                <coordinates>
                    15.9851074,45.7560262,113
                    15.9912872,45.7735099,113
                    15.976181,45.8031959,118
                    16.0180664,45.8132472,116
                </coordinates>
            </LineString>
        </Placemark>
            <Placemark>
                <name>START</name>
                <styleUrl>#StartIconStyle</styleUrl>
                <Point>
                    <coordinates>15.9851074,45.7560262,113</coordinates>
                </Point>
            </Placemark>
            <Style id="WaypointIconStyle">
                <IconStyle id="WaypointIcon">
                    <Icon><href>https://www.plotaroute.com/images/icons/waypointicon.png</href></Icon>
                    <hotSpot x="0.5" y="0.5" xunits="fraction" yunits="fraction"/>
                </IconStyle>
                <LabelStyle><scale>0.7</scale></LabelStyle>
            </Style>
            <Placemark>
                <name><![CDATA[FINISH]]></name>
                <styleUrl>#FinishIconStyle</styleUrl>
                <Point>
                    <coordinates>16.0180664,45.8132472,116</coordinates>
                </Point>
            </Placemark>
        </Folder>
        <ScreenOverlay>
            <name><![CDATA[plotaroute.com]]></name>
            <visibility>1</visibility>
            <open>1</open>
            <Icon>
                <href>https://www.plotaroute.com/images/logo34reversev3.png</href>
            </Icon>
            <overlayXY x="0" y="0" xunits="fraction" yunits="fraction"/>
            <screenXY x="0.01" y="0.94" xunits="fraction" yunits="fraction"/>
            <rotationXY x="0" y="0" xunits="fraction" yunits="fraction"/>
            <size x="0" y="0" xunits="fraction" yunits="fraction"/>
        </ScreenOverlay>
        <Snippet><![CDATA[This route was downloaded from <a href="https://www.plotaroute.com">plotaroute.com</a>]]></Snippet>
    </Document>
</kml>
